<?xml version="1.0" standalone="no"?>
<!DOCTYPE svg PUBLIC "-//W3C//DTD SVG 1.1//EN" "http://www.w3.org/Graphics/SVG/1.1/DTD/svg11.dtd">
<svg xmlns="http://www.w3.org/2000/svg">
<metadata>Generated by Fontastic.me</metadata>
<defs>
<font id="untitled-font-1" horiz-adv-x="512">
<font-face font-family="untitled-font-1" units-per-em="512" ascent="480" descent="-32"/>
<missing-glyph horiz-adv-x="512" />

<glyph glyph-name="altacliente" unicode="&#97;" d="M478 132l-3 15c-2 24-14 43-33 55-19 12-44 18-75 18-1 0-1 0-2 0l-1 12c1 0 1 0 2 0 18 0 32 6 44 19 12 13 18 28 18 46 0 11-3 20-9 30-6 8-13 15-22 20-19 9-42 9-61 0-9-5-16-12-22-20-5-7-8-16-9-25-14 4-31 7-50 7-17 0-34-3-47-6-1 8-4 17-8 24-6 8-13 15-23 20-19 9-42 9-61 0-9-5-16-12-22-20-7-9-11-18-11-29 0-18 6-34 18-46 12-13 27-19 44-19l-1-12c-31 0-55-6-73-18-20-13-31-31-33-56l-2-15c-2-7 4-14 12-14 0 0 1 0 1 0 7 0 13 4 13 11l1 16c1 15 8 27 21 36 15 9 35 13 61 13 26 0 46-5 61-13 13-9 20-21 21-36l1-17c1-7 7-13 14-12 7 2 13 8 12 15l-1 16c-2 24-14 43-33 55-13 8-30 14-50 17l1 14c0 2 0 3 1 6 6 3 12 7 17 13 6 7 11 14 13 22 13 6 31 9 51 9 23 0 40-4 55-11 2-7 7-14 13-21 3-5 8-9 13-11 0-2 1-5 1-7l1-16c-18-2-33-8-46-15-20-13-31-31-33-56l-2-15c-1-7 5-15 12-15 0 0 1 0 1 0 8 0 14 5 14 12l1 16c1 15 8 27 21 35 14 10 35 13 61 13 26 0 46-4 60-13 13-8 20-20 22-35l1-17c1-7 7-13 14-12 11 3 16 10 16 17z m-308 138c-2-4-6-5-10-7-2-2-6-3-8-4-2 0-5-1-6-1-6 0-11 1-15 3-4 2-7 4-10 7-7 8-11 17-11 29 0 5 2 9 5 14 4 5 7 9 13 12 6 2 12 5 18 5 6 0 12-1 18-5 6-2 9-7 13-12 4-5 5-9 5-14 0-2 0-5 0-6-4-8-7-15-12-21z m161 20c0 2-1 5-1 8 0 5 1 10 5 14 4 5 7 9 13 12 6 3 11 5 18 5 6 0 12-1 18-5 6-2 9-7 13-12 3-4 5-9 5-14 0-12-4-20-11-28-3-4-6-5-10-7-4-3-9-4-15-4-4 0-6 0-10 1-2 0-3 1-6 3-3 1-7 3-9 7-5 6-8 12-10 20z m-78 31c18 0 32 6 44 19 12 13 18 28 18 46 0 11-3 20-9 30-5 9-13 15-22 21-19 10-42 10-61 0-9-5-16-12-22-20-6-10-9-19-9-30 0-18 6-34 18-46 11-13 25-20 43-20z m-30 81c4 4 7 8 13 11 6 3 12 5 18 5 6 0 12-1 18-5 6-2 10-7 13-11 4-5 5-10 5-15 0-12-4-20-11-28-2-4-6-5-9-7-5-3-10-4-16-4-6 0-10 1-15 4-4 1-7 3-10 7-7 7-10 16-10 28 0 5 1 10 4 15z"/>
<glyph glyph-name="anuncios" unicode="&#98;" d="M326 435c-7 7-15 11-24 11-7 0-13-3-19-6l-99-62-104 0c-20 0-36-16-36-36l0-69c0-19 16-36 36-36l17 0 48-132 7-20c3-9 10-18 20-21 9-5 16-5 25-2l7 2c10 3 18 10 22 20 5 9 5 20 1 29l-34 96-11 27 1 0 99-63c6-3 13-5 19-5 9 0 18 3 24 10 4 4 6 7 8 12 3 4 4 9 4 14l0 203c0 5-1 11-4 14 0 7-3 11-7 14z m-124-334c1-3 1-6 0-9-1-2-4-5-7-6l-2-1c-4-1-6-1-10 0-3 1-4 3-6 7l-52 144 28 0z m109 214l0-111c0-6-4-10-9-10-1 0-4 0-5 1l-100 63c-3 3-8 4-11 4l-105 0c-5 0-9 4-9 9l0 69c0 4 4 9 9 9l105 0c4 0 8 1 11 4l100 62c1 2 4 2 5 2 5 0 9-4 9-10z m84-54c-2-3-6-4-9-4-4 0-7 1-10 4-4 4-4 14 0 18 14 14 14 38 0 51-4 5-4 14 0 19 5 5 14 5 19 0 24-23 24-64 0-88z m40-40c-3-2-6-3-10-3-3 0-7 1-9 3-5 5-5 14 0 19 36 36 36 94 0 130-5 5-5 14 0 19 5 4 14 4 19 0 45-46 45-121 0-168z"/>
<glyph glyph-name="avisos" unicode="&#99;" d="M265 292c0 5-4 8-8 8l-118 0c-5 0-8-3-8-8 0-5 3-8 8-8l118 0c4 0 8 3 8 8z m75-223l-228 0c-6 0-10 4-10 10l-1 221 0 141c0 6 4 10 10 10l234 0c6 0 10-4 10-10l0-67c0-10 7-17 17-17 9 0 16 7 16 17l0 67c0 23-19 43-43 43l-234 0c-23 0-43-19-43-43l1-363c0-23 19-43 43-43l228 0c10 0 17 7 17 16 0 10-7 18-17 18z m-118 197l-82 0c-4 0-8-3-8-8 0-4 4-8 8-8l82 0c4 0 8 4 8 8 0 5-4 8-8 8z m35 64l-118 0c-5 0-8-3-8-8 0-4 3-8 8-8l118 0c4 0 8 4 8 8 0 5-4 8-8 8z m-109 26l97 0c9 0 16 7 16 16 0 10-7 17-16 17l-97 0c-9 0-16-7-16-17 0-9 7-16 16-16z m302-192c-8 8-14 26-18 59-4 43-31 57-47 62 7 6 11 14 11 25 0 16-14 30-30 30-16 0-30-14-30-30 0-11 4-19 13-25-17-5-42-19-47-62-5-32-9-51-17-59-7-7-16-15-14-26 0-5 3-11 9-16 8-7 35-9 58-10 4-13 15-22 29-22 14 0 26 9 29 22 23 1 50 3 60 10 5 5 9 11 9 16 0 11-8 19-15 26z m-84 157c7 0 12-6 12-11 0-7-6-12-12-12-7 0-12 6-12 12 0 5 5 11 12 11z m0-213c-4 0-7 1-9 4 2 0 4 0 7 0 0 0 1 0 1 0 0 0 1 0 1 0 2 0 5 0 8 0-1-3-5-4-8-4z m78 29c-6-4-44-7-77-7 0 0-1 0-1 0 0 0-1 0-1 0-32 0-69 4-75 7-2 1-3 3-3 3 0 1 1 4 9 11 12 12 19 32 23 70 6 48 42 48 45 48 1 0 2 0 3 0 1 0 2-1 4 0 1 0 38 0 44-48 4-38 11-58 23-70 7-7 9-10 9-11-1 0-2-2-3-3z"/>
<glyph glyph-name="cliente" unicode="&#100;" d="M482 357c0 30-12 58-32 78-22 22-51 34-82 32l-172 0c-3 0-4 0-6-1 0 0-2 0-2 0 0 0 0 0-1 0l-1-1c0 0-1-2-1-2l-53-52c-18-18-18-47 0-66 9-9 21-14 33-14 13 0 25 5 34 14l24 24 112-112c5-5 15-5 22 0 2 2 4 6 4 10 0 4-2 8-4 10l-124 124c-3 2-6 4-10 4-4 0-8-2-10-4l-35-35c-6-6-18-6-24 0-7 7-7 18 0 25l47 47 166 0c22 1 45-8 60-23 15-15 23-36 23-56 0-22-9-42-24-58l-58-57c-5-7-5-15 0-22l30-29c2-3 5-8 5-12 0-5-1-9-5-11-7-7-18-7-25 0l-58 59c-5 5-16 5-22 0-6-7-6-16 0-21l59-59c6-6 6-16 0-24-3-2-8-5-12-5-5 0-9 1-11 5l-59 59c-5 5-15 5-22 0-2-3-3-7-3-10 0-4 1-8 3-11l59-58c6-7 6-18 0-25-6-6-17-6-23 0l-55 55c-4 4-9 5-14 4 5 8 9 18 9 27 0 13-5 24-14 33-4 4-10 8-15 10 4 8 6 16 6 25 0 12-5 24-14 33-9 9-20 14-33 14-13 0-24-5-33-14l-12-12-28 28c-31 32-31 82 0 114 12 8 24 15 37 19 4 1 8 4 9 7 3 3 3 7 1 11-1 8-10 13-18 10-17-5-34-14-48-28-43-43-43-112 0-156l40-39c1-1 1-1 2-1 6-4 14-3 19 1l23 23c3 2 8 5 12 5 5 0 9-1 11-5 3-3 5-8 5-12 0-5-1-9-5-11l-52-52c-7-7-18-7-24 0-3 2-6 7-6 11 0 5 2 9 6 12 2 2 3 6 3 10 0 4-1 7-3 10-7 6-16 6-21 0-9-9-14-20-14-33 0-13 5-24 14-33 9-9 19-13 32-14 0-12 5-23 14-31 3-3 7-4 10-4 4 0 8 1 11 4 2 2 3 6 3 10 0 4-1 8-3 10-7 7-7 17 0 25l30 30c7 7 17 7 23 0 3-2 5-7 5-11 0-4-1-9-5-12l-29-29c-9-9-14-21-14-33 0-13 5-25 14-34 9-8 20-14 33-14 13 0 24 6 33 14l19 20 19-20c9-8 21-14 34-14 12 0 24 6 33 14 9 9 13 20 14 32 11 0 23 6 31 14 8 9 12 20 14 31 11 0 23 5 32 14 8 9 14 21 14 33 0 13-6 25-14 34l-20 19 48 47c17 19 29 47 29 76z m-300-279c-4 2-5 8-5 11 0 6 1 9 5 12l23 23c0-1 0-1 0-3 0-4 1-7 4-10l15-15-19-19c-5-5-17-5-23 1z"/>
<glyph glyph-name="clienteactual" unicode="&#101;" d="M419 69c2-9-5-17-15-18-9-1-17 5-18 15l-2 29c-3 29-17 49-40 65-25 16-61 24-107 24-46 0-82-8-107-24-25-17-37-39-41-68l-3-27c-1-9-7-15-16-15 0 0-2 0-2 0-9 1-15 9-15 18l3 27c5 40 23 70 56 91 30 20 73 30 125 30 52 0 94-10 125-30 32-20 51-51 55-90z m-255 211c-19 20-28 46-28 75 0 17 5 32 14 46 9 14 22 25 37 33 31 17 68 17 98 0 16-8 28-19 37-33 9-14 14-31 14-46 0-29-9-55-28-75-19-21-43-31-71-31-30 0-54 10-73 31z m5 75c0-22 7-38 19-52 13-14 28-21 48-21 19 0 34 7 47 21 13 14 19 32 19 52 0 10-3 19-9 28-6 9-14 17-24 22-10 5-22 9-33 9-12 0-23-3-34-9-10-5-17-13-24-22-6-8-9-18-9-28z"/>
<glyph glyph-name="corporativos" unicode="&#102;" d="M360 351l0 11c0 8 6 15 15 15 7 0 14-6 14-15l0-11c0-7-6-15-14-15-9 0-15 6-15 15z m-35-15c8 0 15 6 15 15l0 11c0 8-6 15-15 15-7 0-14-6-14-15l0-11c0-9 7-15 14-15z m-230-21c-7 0-14-6-14-15l0-11c0-8 6-15 14-15 8 0 15 6 15 15l0 11c0 9-7 15-15 15z m0-60c-7 0-14-6-14-14l0-12c0-7 6-14 14-14 8 0 15 6 15 14l0 12c0 8-7 14-15 14z m0-59c-7 0-14-6-14-14l0-12c0-7 6-15 14-15 8 0 15 6 15 15l0 12c0 8-7 14-15 14z m0-58c-7 0-14-6-14-14l0-12c0-7 6-14 14-14 8 0 15 5 15 14l0 12c0 7-7 14-15 14z m42 177c-7 0-14-6-14-15l0-11c0-8 6-15 14-15 8 0 15 6 15 15l0 11c0 9-6 15-15 15z m0-60c-7 0-14-6-14-14l0-12c0-7 6-14 14-14 8 0 15 6 15 14l0 12c0 8-6 14-15 14z m0-59c-7 0-14-6-14-14l0-12c0-7 6-15 14-15 8 0 15 6 15 15l0 12c0 8-6 14-15 14z m0-58c-7 0-14-6-14-14l0-12c0-7 6-14 14-14 8 0 15 5 15 14l0 12c0 7-6 14-15 14z m343 164l0-249c0-7-6-15-14-15l-77 0c-7 0-14 6-14 15l0 50-94 0 0-50c0-7-6-15-15-15l-221 0c-7 0-15 6-15 15l0 387c0 8 6 15 15 15l221 0c7 0 15-6 15-15l0-21 151 0c8 0 15-6 15-15l0-88 20 0c6 0 13-6 13-14z m-199 88l0-74 137 0 0 74z m-222-323l116 0 0 235c0 7 6 14 14 14l64 0 0 110-194 0z m394 222l-251 0 0-222 50 0 0 51c0 7 5 14 14 14l123 0c7 0 15-5 15-14l0-51 49 0z m-168-34c-7 0-15-6-15-14l0-12c0-7 6-14 15-14 7 0 14 6 14 14l0 12c-1 8-7 14-14 14z m85 0c-7 0-14-6-14-14l0-12c0-7 6-14 14-14 7 0 15 6 15 14l0 12c-2 8-8 14-15 14z m42 0c-7 0-14-6-14-14l0-12c0-7 6-14 14-14 7 0 15 6 15 14l0 12c0 8-8 14-15 14z m-85 0c-7 0-15-6-15-14l0-12c0-7 6-14 15-14 7 0 14 6 14 14l0 12c0 8-5 14-14 14z m-42-59c-7 0-15-6-15-14l0-12c0-7 6-15 15-15 7 0 14 6 14 15l0 12c-1 8-7 14-14 14z m-42 59c-7 0-14-6-14-14l0-12c0-7 5-14 14-14 7 0 14 6 14 14l0 12c0 8-5 14-14 14z m0-59c-7 0-14-6-14-14l0-12c0-7 5-15 14-15 7 0 14 6 14 15l0 12c0 8-5 14-14 14z m127 0c-7 0-14-6-14-14l0-12c0-7 6-15 14-15 7 0 15 6 15 15l0 12c-2 8-8 14-15 14z m42 0c-7 0-14-6-14-14l0-12c0-7 6-15 14-15 7 0 15 6 15 15l0 12c0 8-8 14-15 14z m-85 0c-7 0-15-6-15-14l0-12c0-7 6-15 15-15 7 0 14 6 14 15l0 12c0 8-5 14-14 14z m-232 179c-7 0-14-5-14-14l0-12c0-7 6-14 14-14 8 0 15 6 15 14l0 12c0 9-7 14-15 14z m86-39c7 0 14 6 14 15l0 11c0 8-6 15-14 15-7 0-15-6-15-15l0-11c0-9 8-15 15-15z m42 0c7 0 14 6 14 15l0 11c0 8-6 15-14 15-7 0-15-6-15-15l0-11c2-9 8-15 15-15z m-86 39c-7 0-14-5-14-14l0-12c0-7 6-14 14-14 8 0 15 6 15 14l0 12c0 9-6 14-15 14z"/>
<glyph glyph-name="contractuales" unicode="&#103;" d="M322 69c0-8-7-15-15-15l-208 0c-20 0-39 17-39 38l0 328c0 21 17 38 38 38l212 0c21 0 39-17 39-38l0-62c0-8-7-15-16-15-8 0-15 7-15 15l0 62c0 5-4 9-9 9l-210 0c-4 0-10-4-10-9l0-328c0-5 5-9 10-9l208 0c8 0 15-6 15-14z m131 184l-66-69-38-40c-2-1-4-3-6-3l-88-29c-1 0-3-1-4-1-4 0-7 1-11 4-3 4-6 10-3 15l28 88c1 2 2 4 3 5l37 39c0 0 0 1 2 1l66 69c7 7 16 11 26 11 9 0 19-3 26-10l27-27c15-16 15-40 1-53z m-59 57l-11-11 39-37 10 10c4 4 3 8 0 11l-8 8-18 19c-2 1-4 2-6 2-3 0-5 0-6-2z m-120-161l37 13-25 24z m128 92l-38 37-64-66c1 0 1-1 2-1l36-35z"/>
<glyph glyph-name="home" unicode="&#104;" d="M485 303l-219 170c-1 1-2 1-3 2-2 0-2 1-3 1 0 0-1 0-1 0 0 0-1 0-1 0 0 0-1 0-1 0 0 0-2 0-2 0-1 0-1 0-1 0 0 0-1 0-1 0-1 0-1 0-2-1-2 0-3-1-4-2l-220-170c-7-5-8-16-2-21 5-8 15-9 21-3l37 27 0-222c0-20 17-36 37-36l94 0 0 129c0 8 6 14 14 14l56 0c8 0 14-6 14-14l0-129 94 0c20 0 37 16 37 36l0 222 37-28c7-5 16-4 21 2 6 7 5 17-2 23z m-86-219c0-3-2-6-6-6l-63 0 0 99c0 25-20 45-45 45l-56 0c-25 0-45-20-45-45l0-99-63 0c-3 0-6 3-6 6l0 246 143 112 142-112 0-246z"/>
<glyph glyph-name="materialesrecurrentes" unicode="&#105;" d="M242 210l-19 0-3-8c-2 1-2 4-4 6-5 4-11 5-16 5-22 0-38-23-38-45 0-18 12-28 25-28 7 0 17 2 24 15 0-2 0-5 3-8 4-5 10-6 15-6 21 0 39 22 39 49 0 38-31 57-64 57-41 0-75-28-75-73 0-40 30-69 72-69 19 0 36 4 58 20l-6 9c-23-18-42-18-51-18-34 0-60 22-60 58 0 41 29 62 62 62 23 0 51-11 51-44 0-24-13-38-22-38-3 0-6 1-6 7 0 3 2 7 3 12z m-34-46c-1-4-6-11-13-11-8 0-10 10-10 13 0 17 10 33 20 33 6 0 9-4 9-9 2 0-1-14-6-26z m279 13l0 193c0 4 0 24-14 40-10 12-25 17-43 17l-141 0-42 41c-3 3-5 4-10 4l-61 0c-4 0-20 0-33-10-6-6-13-17-13-36l0-10-11 0c-5 0-21 0-34-10-5-6-14-16-14-36-12-2-23-6-31-15-15-17-15-40-15-43l0-230c0-44 36-55 55-55 0 0 177-2 230-2 21 0 37 6 49 19 7 7 10 16 11 23 2 0 2 0 3 0 18 0 31 6 41 16 13 13 14 29 14 36 0 2 0 3 0 3l0 5c2 0 3 0 3 0 17 0 30 5 41 15 15 13 15 34 15 35z m-150-114c-4-6-14-9-27-9-53 0-230 2-230 2-8 0-26 3-26 26l0 230c0 4 1 16 8 23 5 4 10 6 18 6l36 0 60-55c3-3 6-5 11-5l124 0c0 0 1 0 1 0 0 0 2 0 3 0 21 0 29-8 29-26l0-173c0 0 0-2 0-2-1-1-1-10-7-17z m56 39c-4-4-10-6-20-6-1 0-1 0-3 0l0 159c0 41-32 57-59 57-1 0-3 0-4 0l-119 0-58 55c-3 1-6 3-10 3l-19 0c0 7 2 11 5 13 2 4 10 4 10 4 0 0 1 0 1 0l57 0 40-41c3-2 6-4 10-4l148 0c10 0 17-3 21-7 8-7 6-20 6-20 0 0 0-2 0-2l0-191c0-1 0-3 0-4 0 0 0-10-6-16z m60 58c-5-5-10-6-21-6-1 0-2 0-2 0l0 159c0 4 0 25-15 41-10 11-24 17-43 17l-141 0-40 40c-3 3-6 5-10 5l-22 0 0 10c0 7 2 12 4 14 5 3 11 3 11 3 0 0 1 0 1 0l56 0 41-40c3-3 6-5 10-5l148 0c10 0 17-2 21-7 7-7 6-20 6-20 0 0 0-1 0-1l0-193c1-1 1-10-4-17z"/>
<glyph glyph-name="operativos" unicode="&#106;" d="M388 57c13 0 23 10 23 23l0 42c0 43-35 78-78 78l-154 0c-43 0-78-35-78-78l0-42c0-13 10-23 23-23 13 0 23 10 23 23l0 42c0 18 14 32 32 32l154 0c18 0 32-14 32-32l0-42c0-14 10-23 23-23z m-5 287l-26 0c0 3 0 4 0 6 0 56-46 101-102 101-55 0-101-45-101-101 0-2 0-3 0-6l-25 0c-12 0-21-9-21-21 0-11 9-20 21-20l44 0c1-46 38-82 82-82 45 0 82 36 83 82l44 0c12 0 21 9 21 20 0 12-8 21-20 21z m-126-81c-24 0-41 17-42 41l83 0c-1-24-19-41-41-41z m60 81l-41 0 0 19c0 12-9 21-21 21-11 0-21-9-21-21l0-19-40 0c0 3 0 4 0 6 0 34 27 61 60 61 34 0 61-27 61-61 2-2 2-4 2-6z"/>
<glyph glyph-name="regulatorios" unicode="&#107;" d="M283 305c-23 13-53 5-67-19-13-24-6-54 18-68 7-5 16-7 25-7 17 0 34 9 43 25 13 25 5 55-19 69z m-7-54c-5-9-18-12-26-8-10 6-13 19-7 28 3 7 10 11 17 11 4 0 7-2 11-3 7-6 10-18 5-28z m133 28c-29 10-29 10-37 31-10 23-10 23 3 52 20 46 21 59-14 80-11 7-19 12-30 12-17 0-28-14-44-37-20-28-20-28-41-31-5 0-8-1-10-1-9 0-12 1-33 21-20 19-33 30-48 30-11 2-21-5-31-15-30-27-27-42 1-82 19-27 19-28 14-50-3-18-5-20-34-36-39-23-51-34-35-75 6-14 13-31 36-31 11 0 23 3 42 9 26 8 24 12 50-5 18-10 18-10 25-45 6-33 10-55 42-55 4 0 9 0 15 1 43 5 45 21 44 68 0 32 0 32 14 45 14 12 16 13 24 13 6 0 13-1 23-2 12-1 22-3 30-3 31 0 37 19 43 42 8 40-7 49-49 64z m20-57c-5-18-5-18-14-18-7 0-15 1-27 2-12 1-19 2-26 2-18 0-27-7-43-21-23-19-24-29-24-68 0-11 0-32-2-35-3-1-13-3-17-4-10-1-17 0-17 0-4 3-7 22-8 32-8 40-13 50-39 65-24 15-40 17-73 7-15-5-27-9-35-8-1 1-3 6-7 14-8 19-8 19 22 36 33 18 42 27 48 56 7 31 5 40-19 73-19 29-19 29-5 42 8 8 11 9 12 9 5 0 21-15 28-22 21-20 32-29 51-29 4 0 9 0 14 1 32 4 39 11 62 43 5 7 16 23 20 25 2 0 12-5 15-7 4-3 13-7 14-10 1-4-7-23-12-32-16-38-16-45-3-77 13-32 20-35 55-48 34-10 34-10 30-28z"/>
<glyph glyph-name="repositorio-personal" unicode="&#108;" d="M432 24l-352 0c-31 0-56 25-56 56l0 352c0 31 25 56 56 56l72 0c9 0 18-4 26-10l67-68 187 0c31 0 56-25 56-56l0-274c0-31-25-56-56-56z m18 224l0 106c0 10-8 18-18 18l-188 0c-9 0-18 4-26 11l-68 67-70 0c-10 0-18-8-18-18l0-352c0-10 8-18 18-18l352 0c10 0 18 8 18 18z m-214-108l-116 0c-10 0-20 9-20 20 0 10 10 19 20 19l116 0c11 0 20-9 20-19 0-12-9-20-20-20z m0 78l-116 0c-10 0-20 9-20 20 0 10 10 19 20 19l116 0c11 0 20-9 20-19 0-12-9-20-20-20z m0 76l-116 0c-10 0-20 10-20 20 0 11 10 20 20 20l116 0c11 0 20-9 20-20 0-10-9-20-20-20z"/>
<glyph glyph-name="sharedfile" unicode="&#109;" d="M413 468c-7 7-18 15-37 15l-189 0c-18-1-47-15-47-50l0-13-15 0c-25 0-46-21-46-48l0-285c0-25 21-46 46-46l160 0c5 0 9 3 12 5l18 24c0 0 2 0 2 0l49 0c33 0 60 28 60 61l0 294c2 3 3 26-13 43z m-144-316c-9 0-16-7-16-16l0-63-128 0c-8 0-14 6-14 14l0 285c0 8 6 15 14 15l192 0c8 0 14-7 14-15l0-222-62 0z m16-70l0 38 30 0z m110 343l0-294c0-16-14-29-29-29l-26 0 19 23c3 3 4 7 4 10l0 237c1 27-20 48-46 48l-145 0 0 13c0 14 10 17 15 18l188 0c9 0 12-4 13-4 7-6 8-17 7-22z m-88-106c0-2-2-5-5-5l-31 0 0-32c0-2-3-5-6-5-2 0-5 3-5 5l0 32-32 0c-2 0-5 3-5 5 0 3 3 6 5 6l32 0 0 31c0 3 3 6 5 6 3 0 6-3 6-6l0-31 31 0c3 0 5-3 5-6z"/>
</font></defs></svg>
